%YAML 1.1
%TAG !u! tag:unity3d.com,2011:
--- !u!114 &11400000
MonoBehaviour:
  m_ObjectHideFlags: 0
  m_CorrespondingSourceObject: {fileID: 0}
  m_PrefabInstance: {fileID: 0}
  m_PrefabAsset: {fileID: 0}
  m_GameObject: {fileID: 0}
  m_Enabled: 1
  m_EditorHideFlags: 0
  m_Script: {fileID: 11500000, guid: af822c305b1ad0748a7f81c798af987c, type: 3}
  m_Name: State_Papa_Hitstun
  m_EditorClassIdentifier: 
  actions:
  - {fileID: 11400000, guid: 1f60e99f99696314393911d043dedd2c, type: 2}
  - {fileID: 11400000, guid: 111a4a6d4f3b844449d3dbf069eb08eb, type: 2}
  transitions:
  - decision: {fileID: 11400000, guid: a3a05e24b890f6d4e967f27e63f14875, type: 2}
    trueState:
    - {fileID: 11400000, guid: 2322c289d68efe841a6aa17598c2efde, type: 2}
    falseState:
    - {fileID: 11400000, guid: b79b88a45278e7a458dbdb8bdad61370, type: 2}
  sceneGizmoColor: {r: 1, g: 0.60990745, b: 0, a: 1}
