%YAML 1.1
%TAG !u! tag:unity3d.com,2011:
--- !u!114 &11400000
MonoBehaviour:
  m_ObjectHideFlags: 0
  m_CorrespondingSourceObject: {fileID: 0}
  m_PrefabInstance: {fileID: 0}
  m_PrefabAsset: {fileID: 0}
  m_GameObject: {fileID: 0}
  m_Enabled: 1
  m_EditorHideFlags: 0
  m_Script: {fileID: 11500000, guid: af822c305b1ad0748a7f81c798af987c, type: 3}
  m_Name: State_Papa_Recover1
  m_EditorClassIdentifier: 
  actions:
  - {fileID: 11400000, guid: daa9bb0f7007f164ab9afea468927175, type: 2}
  - {fileID: 11400000, guid: 4269ecb291b393840aa49119326f7332, type: 2}
  transitions:
  - decision: {fileID: 11400000, guid: a3a05e24b890f6d4e967f27e63f14875, type: 2}
    trueState:
    - {fileID: 11400000, guid: 96bd7bcb995660b4fbc8eb1d22e38a6b, type: 2}
    falseState:
    - {fileID: 11400000, guid: b79b88a45278e7a458dbdb8bdad61370, type: 2}
  sceneGizmoColor: {r: 1, g: 0, b: 0.944716, a: 1}
