%YAML 1.1
%TAG !u! tag:unity3d.com,2011:
--- !u!114 &11400000
MonoBehaviour:
  m_ObjectHideFlags: 0
  m_CorrespondingSourceObject: {fileID: 0}
  m_PrefabInstance: {fileID: 0}
  m_PrefabAsset: {fileID: 0}
  m_GameObject: {fileID: 0}
  m_Enabled: 1
  m_EditorHideFlags: 0
  m_Script: {fileID: 11500000, guid: 32a907452cb416841aa8731d74925973, type: 3}
  m_Name: SoundBank_Player
  m_EditorClassIdentifier: 
  step:
    audioClip:
    - {fileID: 8300000, guid: 9d1362c325cd9ae4aa53cac1fe4c310b, type: 3}
    - {fileID: 8300000, guid: ff71e6d2c90097a4a8bcb4c52c0254f9, type: 3}
    - {fileID: 8300000, guid: 1b6db33daa045ef45a4a904e90ef1e2b, type: 3}
    - {fileID: 8300000, guid: 316f2d7998150c84fb95af1c23988c3b, type: 3}
    - {fileID: 8300000, guid: 7f7e963e456df7a4e9c5db1d2f0a8736, type: 3}
    - {fileID: 8300000, guid: 210b968ca7d3ebc40bb14f7e28d20935, type: 3}
    volume: 0.1
  stepPitchMin: 1
  stepPitchMax: 1.5
  takeHit:
    audioClip:
    - {fileID: 8300000, guid: bb4c31736b8dc9b4d92d01c249e97656, type: 3}
    - {fileID: 8300000, guid: a650e5194f9a26846a10aac8981cf544, type: 3}
    - {fileID: 8300000, guid: 1f28634b4fe9f1c4486a815e82c1e635, type: 3}
    - {fileID: 8300000, guid: e65355aaaf617ec4ba88d32270d43622, type: 3}
    - {fileID: 8300000, guid: 31549d31afd5e0e4f9c65ba8a40bd415, type: 3}
    - {fileID: 8300000, guid: 34b74d571421dbb46b24a253890a7823, type: 3}
    volume: 0.5
  meleeAttack:
    audioClip:
    - {fileID: 8300000, guid: 72e7cac027464a74fa5fa3c656c94eae, type: 3}
    - {fileID: 8300000, guid: baea9c507fbd6b14dafe4ad08094ad43, type: 3}
    - {fileID: 8300000, guid: 8c5eca276dbbe194d993f3ce71454b97, type: 3}
    - {fileID: 8300000, guid: 41886aebef82c4e4bb2895a60d0069b0, type: 3}
    - {fileID: 8300000, guid: 8185b3c0f4c874443b465d5cd2462a27, type: 3}
    - {fileID: 8300000, guid: 02536ec9081a7b0429b3a7a60bda36aa, type: 3}
    volume: 0.5
  bloodAttack:
    audioClip:
    - {fileID: 8300000, guid: 2048f973a17d54247aa63bba2c5f26e2, type: 3}
    - {fileID: 8300000, guid: dc95e2ab14cc7e24486276f7ed9a7ce1, type: 3}
    - {fileID: 8300000, guid: 05d33639559c1a34cb186cd73dda71bf, type: 3}
    - {fileID: 8300000, guid: 2f1e12b6e8bbb93499be33e7ed8ee67f, type: 3}
    volume: 1
  rangedAttack:
    audioClip:
    - {fileID: 8300000, guid: fc9fbc941024ba248a519b2ce27b5464, type: 3}
    - {fileID: 8300000, guid: fc3aed5547df30e4298e293fb82bc50d, type: 3}
    - {fileID: 8300000, guid: bbf94c5a6d593e04ea7f370be6cdec9b, type: 3}
    - {fileID: 8300000, guid: 24f8e8fc6b169054d912ecf4609d0f17, type: 3}
    - {fileID: 8300000, guid: f591d1401fa33da41928bc22b62065eb, type: 3}
    volume: 0.5
  dash:
    audioClip:
    - {fileID: 8300000, guid: fa158c3e295a02e4dafefcf9d3fd7147, type: 3}
    - {fileID: 8300000, guid: e0b24fa35ac474040a24b9356073506d, type: 3}
    volume: 1
  death:
    audioClip:
    - {fileID: 8300000, guid: 732abeda63407bb4eb19f3aa2d5829c0, type: 3}
    volume: 1
  impact:
    audioClip: []
    volume: 1
