%YAML 1.1
%TAG !u! tag:unity3d.com,2011:
--- !u!114 &11400000
MonoBehaviour:
  m_ObjectHideFlags: 0
  m_CorrespondingSourceObject: {fileID: 0}
  m_PrefabInstance: {fileID: 0}
  m_PrefabAsset: {fileID: 0}
  m_GameObject: {fileID: 0}
  m_Enabled: 1
  m_EditorHideFlags: 0
  m_Script: {fileID: 11500000, guid: af822c305b1ad0748a7f81c798af987c, type: 3}
  m_Name: State_Ratao_TailAttack
  m_EditorClassIdentifier: 
  actions:
  - {fileID: 11400000, guid: 5720f3f816efd7541a2e799e8e4b969a, type: 2}
  - {fileID: 11400000, guid: 111a4a6d4f3b844449d3dbf069eb08eb, type: 2}
  transitions:
  - decision: {fileID: 11400000, guid: 3a5ccb2e41728ba42bfbcd5ba9cc1f6f, type: 2}
    trueState:
    - {fileID: 11400000, guid: 9fd9e80371d8d3d428e39118008da4ac, type: 2}
    falseState:
    - {fileID: 11400000, guid: b79b88a45278e7a458dbdb8bdad61370, type: 2}
  sceneGizmoColor: {r: 0.5, g: 0.5, b: 0.5, a: 1}
