%YAML 1.1
%TAG !u! tag:unity3d.com,2011:
--- !u!114 &11400000
MonoBehaviour:
  m_ObjectHideFlags: 0
  m_CorrespondingSourceObject: {fileID: 0}
  m_PrefabInstance: {fileID: 0}
  m_PrefabAsset: {fileID: 0}
  m_GameObject: {fileID: 0}
  m_Enabled: 1
  m_EditorHideFlags: 0
  m_Script: {fileID: 11500000, guid: 566a1ee80d93ed949966671869883ae4, type: 3}
  m_Name: Combo1
  m_EditorClassIdentifier: 
  hits:
  - animationParameter: Attack1
  - animationParameter: Attack2
  - animationParameter: Attack3
  inputCombo: Fire1
