%YAML 1.1
%TAG !u! tag:unity3d.com,2011:
--- !u!1 &1964992580990625429
GameObject:
  m_ObjectHideFlags: 0
  m_CorrespondingSourceObject: {fileID: 0}
  m_PrefabInstance: {fileID: 0}
  m_PrefabAsset: {fileID: 0}
  serializedVersion: 6
  m_Component:
  - component: {fileID: 1964992580990625425}
  - component: {fileID: 1964992580990625428}
  - component: {fileID: 7365269374997764934}
  m_Layer: 2
  m_Name: Text 7
  m_TagString: Untagged
  m_Icon: {fileID: 0}
  m_NavMeshLayer: 0
  m_StaticEditorFlags: 0
  m_IsActive: 1
--- !u!4 &1964992580990625425
Transform:
  m_ObjectHideFlags: 0
  m_CorrespondingSourceObject: {fileID: 0}
  m_PrefabInstance: {fileID: 0}
  m_PrefabAsset: {fileID: 0}
  m_GameObject: {fileID: 1964992580990625429}
  m_LocalRotation: {x: 0, y: 0, z: 0, w: 1}
  m_LocalPosition: {x: 0, y: 0, z: 0}
  m_LocalScale: {x: 1, y: 1, z: 1}
  m_Children:
  - {fileID: 1462203358825570923}
  m_Father: {fileID: 0}
  m_RootOrder: 0
  m_LocalEulerAnglesHint: {x: 0, y: 0, z: 0}
--- !u!65 &1964992580990625428
BoxCollider:
  m_ObjectHideFlags: 0
  m_CorrespondingSourceObject: {fileID: 0}
  m_PrefabInstance: {fileID: 0}
  m_PrefabAsset: {fileID: 0}
  m_GameObject: {fileID: 1964992580990625429}
  m_Material: {fileID: 0}
  m_IsTrigger: 1
  m_Enabled: 1
  serializedVersion: 2
  m_Size: {x: 5, y: 5, z: 5}
  m_Center: {x: 0, y: 0, z: 0}
--- !u!114 &7365269374997764934
MonoBehaviour:
  m_ObjectHideFlags: 0
  m_CorrespondingSourceObject: {fileID: 0}
  m_PrefabInstance: {fileID: 0}
  m_PrefabAsset: {fileID: 0}
  m_GameObject: {fileID: 1964992580990625429}
  m_Enabled: 1
  m_EditorHideFlags: 0
  m_Script: {fileID: 11500000, guid: 472a8285b34267b48b35cee281bdcad5, type: 3}
  m_Name: 
  m_EditorClassIdentifier: 
  input: 101
  baseTimer: 1
  text: "Os cidad\xE3os ja falam da criatura como a reencarna\xE7\xE3o de Orlok,
    o medo se espalhou. O senhor da Luz j\xE1 est\xE1 na cidade, a ordem deve se
    manter!"
--- !u!1001 &3416852764076131486
PrefabInstance:
  m_ObjectHideFlags: 0
  serializedVersion: 2
  m_Modification:
    m_TransformParent: {fileID: 1964992580990625425}
    m_Modifications:
    - target: {fileID: 4260919034645554933, guid: 0692f2d8a1e00c7458fa5bb136722ca1,
        type: 3}
      propertyPath: m_LocalPosition.x
      value: 0
      objectReference: {fileID: 0}
    - target: {fileID: 4260919034645554933, guid: 0692f2d8a1e00c7458fa5bb136722ca1,
        type: 3}
      propertyPath: m_LocalPosition.y
      value: 0
      objectReference: {fileID: 0}
    - target: {fileID: 4260919034645554933, guid: 0692f2d8a1e00c7458fa5bb136722ca1,
        type: 3}
      propertyPath: m_LocalPosition.z
      value: 0
      objectReference: {fileID: 0}
    - target: {fileID: 4260919034645554933, guid: 0692f2d8a1e00c7458fa5bb136722ca1,
        type: 3}
      propertyPath: m_LocalRotation.x
      value: 0
      objectReference: {fileID: 0}
    - target: {fileID: 4260919034645554933, guid: 0692f2d8a1e00c7458fa5bb136722ca1,
        type: 3}
      propertyPath: m_LocalRotation.y
      value: 0
      objectReference: {fileID: 0}
    - target: {fileID: 4260919034645554933, guid: 0692f2d8a1e00c7458fa5bb136722ca1,
        type: 3}
      propertyPath: m_LocalRotation.z
      value: 0
      objectReference: {fileID: 0}
    - target: {fileID: 4260919034645554933, guid: 0692f2d8a1e00c7458fa5bb136722ca1,
        type: 3}
      propertyPath: m_LocalRotation.w
      value: 1
      objectReference: {fileID: 0}
    - target: {fileID: 4260919034645554933, guid: 0692f2d8a1e00c7458fa5bb136722ca1,
        type: 3}
      propertyPath: m_RootOrder
      value: 0
      objectReference: {fileID: 0}
    - target: {fileID: 4260919034645554933, guid: 0692f2d8a1e00c7458fa5bb136722ca1,
        type: 3}
      propertyPath: m_LocalEulerAnglesHint.x
      value: 0
      objectReference: {fileID: 0}
    - target: {fileID: 4260919034645554933, guid: 0692f2d8a1e00c7458fa5bb136722ca1,
        type: 3}
      propertyPath: m_LocalEulerAnglesHint.y
      value: 0
      objectReference: {fileID: 0}
    - target: {fileID: 4260919034645554933, guid: 0692f2d8a1e00c7458fa5bb136722ca1,
        type: 3}
      propertyPath: m_LocalEulerAnglesHint.z
      value: 41.01
      objectReference: {fileID: 0}
    - target: {fileID: 4260919034645554935, guid: 0692f2d8a1e00c7458fa5bb136722ca1,
        type: 3}
      propertyPath: m_Name
      value: Book Item
      objectReference: {fileID: 0}
    m_RemovedComponents: []
  m_SourcePrefab: {fileID: 100100000, guid: 0692f2d8a1e00c7458fa5bb136722ca1, type: 3}
--- !u!4 &1462203358825570923 stripped
Transform:
  m_CorrespondingSourceObject: {fileID: 4260919034645554933, guid: 0692f2d8a1e00c7458fa5bb136722ca1,
    type: 3}
  m_PrefabInstance: {fileID: 3416852764076131486}
  m_PrefabAsset: {fileID: 0}
