%YAML 1.1
%TAG !u! tag:unity3d.com,2011:
--- !u!114 &11400000
MonoBehaviour:
  m_ObjectHideFlags: 0
  m_CorrespondingSourceObject: {fileID: 0}
  m_PrefabInstance: {fileID: 0}
  m_PrefabAsset: {fileID: 0}
  m_GameObject: {fileID: 0}
  m_Enabled: 1
  m_EditorHideFlags: 0
  m_Script: {fileID: 11500000, guid: af822c305b1ad0748a7f81c798af987c, type: 3}
  m_Name: State_Tank_Thrust_Recover
  m_EditorClassIdentifier: 
  actions:
  - {fileID: 11400000, guid: f28aeb85809223943a07d9261360c218, type: 2}
  transitions:
  - decision: {fileID: 11400000, guid: 3a5ccb2e41728ba42bfbcd5ba9cc1f6f, type: 2}
    trueState: {fileID: 0}
    falseState: {fileID: 0}
  sceneGizmoColor: {r: 1, g: 0, b: 0.91280556, a: 1}
