%YAML 1.1
%TAG !u! tag:unity3d.com,2011:
--- !u!114 &11400000
MonoBehaviour:
  m_ObjectHideFlags: 0
  m_CorrespondingSourceObject: {fileID: 0}
  m_PrefabInstance: {fileID: 0}
  m_PrefabAsset: {fileID: 0}
  m_GameObject: {fileID: 0}
  m_Enabled: 1
  m_EditorHideFlags: 0
  m_Script: {fileID: 11500000, guid: af822c305b1ad0748a7f81c798af987c, type: 3}
  m_Name: State_Melee_Hitstun
  m_EditorClassIdentifier: 
  actions:
  - {fileID: 11400000, guid: 2ba463247f5eb76478a2008930ae37d6, type: 2}
  - {fileID: 11400000, guid: 1f60e99f99696314393911d043dedd2c, type: 2}
  transitions:
  - decision: {fileID: 11400000, guid: 4eec11892aa15c84dbc12ddc96fdabed, type: 2}
    trueState:
    - {fileID: 11400000, guid: 7b8469773f7814d479f3d5c20dafab90, type: 2}
    falseState:
    - {fileID: 11400000, guid: b79b88a45278e7a458dbdb8bdad61370, type: 2}
  sceneGizmoColor: {r: 1, g: 0.60990745, b: 0, a: 1}
