%YAML 1.1
%TAG !u! tag:unity3d.com,2011:
--- !u!21 &2100000
Material:
  serializedVersion: 6
  m_ObjectHideFlags: 0
  m_CorrespondingSourceObject: {fileID: 0}
  m_PrefabInstance: {fileID: 0}
  m_PrefabAsset: {fileID: 0}
  m_Name: AiresBlock07
  m_Shader: {fileID: -6465566751694194690, guid: afa4ef1860c5c394a8abda01439229a4,
    type: 3}
  m_ShaderKeywords: 
  m_LightmapFlags: 4
  m_EnableInstancingVariants: 0
  m_DoubleSidedGI: 0
  m_CustomRenderQueue: -1
  stringTagMap:
    MotionVector: User
  disabledShaderPasses:
  - MOTIONVECTORS
  m_SavedProperties:
    serializedVersion: 3
    m_TexEnvs:
    - Texture2D_6B1CF560:
        m_Texture: {fileID: 0}
        m_Scale: {x: 1, y: 1}
        m_Offset: {x: 0, y: 0}
    - Texture2D_B7C77189:
        m_Texture: {fileID: 2800000, guid: 29298dcf59989854f97c21b0d99b16a5, type: 3}
        m_Scale: {x: 1, y: 1}
        m_Offset: {x: 0, y: 0}
    - Texture2D_C3454871:
        m_Texture: {fileID: 0}
        m_Scale: {x: 1, y: 1}
        m_Offset: {x: 0, y: 0}
    - Texture2D_D6B5602F:
        m_Texture: {fileID: 0}
        m_Scale: {x: 1, y: 1}
        m_Offset: {x: 0, y: 0}
    - _MainTex:
        m_Texture: {fileID: 2800000, guid: 29298dcf59989854f97c21b0d99b16a5, type: 3}
        m_Scale: {x: 1, y: 1}
        m_Offset: {x: 0, y: 0}
    m_Floats:
    - Vector1_18711E07: 0
    - Vector1_3B827DE5: 0
    - Vector1_4201D83A: 0.5
    - Vector1_6BE9999B: 1
    - Vector1_6CABECC3: 0
    - Vector1_F89C011D: 1
    m_Colors:
    - Color_E0F0648E: {r: 1, g: 1, b: 1, a: 0}
    - _Color: {r: 0.7, g: 0.7, b: 0.7, a: 1}
